…
```r
pokemon %>%  #legendary
  filter(is_legendary==1)
```

```
## # A tibble: 70 × 44
##     ...1 primary_attack secondary_attack tertiary_attack against_bug
##    <dbl> <chr>          <chr>            <chr>                 <dbl>
##  1   144 Pressure       Snow Cloak       <NA>                   0.5 
##  2   145 Pressure       Static           <NA>                   0.5 
##  3   146 Pressure       Flame Body       <NA>                   0.25
##  4   150 Pressure       Unnerve          <NA>                   2   
##  5   151 Synchronize    <NA>             <NA>                   2   
##  6   243 Pressure       Inner Focus      <NA>                   1   
##  7   244 Pressure       Inner Focus      <NA>                   0.5 
##  8   245 Pressure       Inner Focus      <NA>                   1   
##  9   249 Pressure       Multiscale       <NA>                   1   
## 10   250 Pressure       Regenerator      <NA>                   0.25
## # … with 60 more rows, and 39 more variables: against_dark <dbl>,
## #   against_dragon <dbl>, against_electric <dbl>, against_fairy <dbl>,
## #   against_fight <dbl>, against_fire <dbl>, against_flying <dbl>,
## #   against_ghost <dbl>, against_grass <dbl>, against_ground <dbl>,
## #   against_ice <dbl>, against_normal <dbl>, against_poison <dbl>,
## #   against_psychic <dbl>, against_rock <dbl>, against_steel <dbl>,
## #   against_water <dbl>, attack <dbl>, base_egg_steps <dbl>, …
```


```r
pokemon %>% #nonlegendary
  filter(is_legendary==0)
```

```
## # A tibble: 731 × 44
##     ...1 primary_attack secondary_attack tertiary_attack against_bug
##    <dbl> <chr>          <chr>            <chr>                 <dbl>
##  1     1 Overgrow       Chlorophyll      <NA>                   1   
##  2     2 Overgrow       Chlorophyll      <NA>                   1   
##  3     3 Overgrow       Chlorophyll      <NA>                   1   
##  4     4 Blaze          Solar Power      <NA>                   0.5 
##  5     5 Blaze          Solar Power      <NA>                   0.5 
##  6     6 Blaze          Solar Power      <NA>                   0.25
##  7     7 Torrent        Rain Dish        <NA>                   1   
##  8     8 Torrent        Rain Dish        <NA>                   1   
##  9     9 Torrent        Rain Dish        <NA>                   1   
## 10    10 Shield Dust    Run Away         <NA>                   1   
## # … with 721 more rows, and 39 more variables: against_dark <dbl>,
## #   against_dragon <dbl>, against_electric <dbl>, against_fairy <dbl>,
## #   against_fight <dbl>, against_fire <dbl>, against_flying <dbl>,
## #   against_ghost <dbl>, against_grass <dbl>, against_ground <dbl>,
## #   against_ice <dbl>, against_normal <dbl>, against_poison <dbl>,
## #   against_psychic <dbl>, against_rock <dbl>, against_steel <dbl>,
## #   against_water <dbl>, attack <dbl>, base_egg_steps <dbl>, …
```
…
